158669 504040 449
753574 265793 509
379783 535428 470
93199 23371 351
546580 416731 470
426671 74723 449
281005 586870 470
851000 870408 419
804119 586833 509
302774 769633 509
114846 477978 449
906983 31330 525
397881 343667 441
807228 873285 525
51475 720982 509
334267 277790 389
632173 347358 509
414595 730300 509
136127 592180 470
901592 123681 525
603655 101768 470
388062 752884 509
549163 954617 525
663723 971233 525
665860 783639 504
22990 640013 509
878761 199828 525
699427 577332 509
557196 206236 470
961898 56930 525
705649 397178 509
129949 225172 386
43660 916670 525
261554 798646 509
87309 346411 443
559611 909209 525
321133 578891 470
128704 129027 331
917547 121317 525
569666 602387 434
115590 598780 470
300163 755856 509
510806 288104 449
696273 89597 509
373027 720398 509
600675 119610 470
838661 698292 525
29100 404430 443
448967 357505 449
88024 785765 509
82216 794347 509
382854 962411 525
618131 716129 509
631662 603318 509
334265 44696 443
489743 836987 509
115400 583368 470
11595 526979 470
377881 66206 443
319369 946821 525
364114 90424 443
522787 382290 470
782248 70609 509
234756 146701 443
378779 919547 525
521041 533657 408
786304 354400 509
783930 989515 525
495748 971307 525
555867 92918 470
521422 901811 525
572168 379554 470
596590 66815 470
854499 837275 525
597120 633487 509
770663 709743 468
986925 677573 525
781116 421632 509
210985 201682 373
193246 903663 525
944841 434122 525
768985 63086 509
367224 669379 509
805039 208872 509
41881 608961 470
561817 773676 509
154140 312765 443
266205 849335 525
690210 974328 525
820777 190429 509
942892 65957 525
792511 234293 509
293767 382519 441
104767 63597 351
717228 253651 509
530922 484802 470
597811 497537 470
153354 216553 386
319665 291262 384
237312 851625 525
184365 658436 509
34574 996787 525
306246 695934 509
312093 757857 509
633122 683089 442
590571 637570 509
8618 322139 443
288483 690165 509
102897 447478 449
467633 450516 444
551420 598003 434
770309 538087 509
914989 98103 525
871945 950369 507
571843 862628 525
36319 346063 443
404755 114271 443
755307 700906 504
512455 794544 509
780452 262917 509
754125 151795 509
939334 122959 525
372416 164855 443
647314 159653 509
289518 802651 509
976322 622372 525
888672 652833 525
505916 20672 449
518056 395963 470
30512 115662 354
805503 399797 509
397711 2600 443
351754 920338 525
284339 247477 407
150520 307133 443
100874 535167 470
237079 409566 441
999909 586060 525
627318 503831 509
130860 567308 470
579773 733020 509
162404 199341 365
871384 218117 525
223421 129827 386
878449 752147 525
2704 109089 354
765117 424529 509
45962 796773 509
851274 916054 476
45666 814243 509
858315 874718 432
413 326755 443
88343 62149 351
188616 11648 383
172959 640122 509
32125 71643 340
997820 142658 525
386660 605390 470
289782 128238 443
2667 144623 375
680328 130228 509
278209 811003 509
253201 183261 443
446752 731084 509
19145 452304 449
686721 588647 509
86458 961147 525
466953 943984 525
240237 546978 470
533128 395715 470
609891 411515 470
751201 206832 509
700348 361996 509
951775 460189 525
902545 575090 525
291066 689405 509
381926 212029 443
863352 148907 525
740606 999130 525
263725 396367 441
44866 866231 525
672160 463501 509
356164 204145 443
345262 755327 509
159294 449458 449
100798 764254 509
816096 294990 509
935449 861567 476
832727 560055 509
939334 711666 525
837285 275279 509
517765 795896 509
447436 482531 444
484393 785265 509
953076 207330 525
742210 859449 525
862784 110025 525
41109 507790 449
755751 452498 509
850680 499652 525
