66355 712024 509
453332 533594 470
592683 713233 509
162224 288746 443
862049 879836 432
268000 332082 407
80812 787441 509
141297 470362 449
581590 655123 509
62410 505804 449
329689 578550 470
314386 663249 509
215314 424233 449
236072 970198 525
102910 835535 509
67712 190064 383
642189 775039 504
69876 70932 312
286550 342397 389
705309 807322 468
55535 475776 449
306227 345461 384
88118 173306 383
60439 209568 383
332940 754038 509
13280 14261 258
168955 316631 443
355557 909349 525
51939 829044 509
692614 909932 525
147954 290598 443
224302 613255 470
281820 284454 358
147845 303144 443
510095 728017 509
102200 558576 470
550940 897822 525
54012 368813 443
4109 16150 276
9785 64101 340
124955 190309 383
17577 120810 354
185237 262700 443
59617 258736 443
10545 336420 443
276801 502077 449
79119 338734 443
90403 801769 509
549085 745771 509
107335 199261 383
334151 928093 525
402107 911078 525
262084 562559 470
487467 815880 509
287511 678429 509
92431 582440 470
131291 473700 449
192378 701014 509
593892 798915 509
39104 314351 443
411055 855046 525
264963 275617 407
40753 312568 443
119224 120490 318
588509 940611 525
191398 271914 443
305195 483925 449
32267 378654 443
325969 461245 449
52819 362382 443
208205 464557 449
730228 981835 525
211004 334628 443
231160 838875 525
244037 284722 407
588522 686413 509
258334 439084 449
374397 796383 509
551857 787919 509
663191 691192 442
81952 258696 443
13877 645119 509
23716 513835 470
610809 679944 509
7453 9984 260
26840 123359 354
26523 68599 340
231821 383832 441
673886 889779 525
189974 278409 443
44038 218311 386
204090 353996 443
10156 331524 443
337075 856258 525
174986 223088 386
360363 538803 470
110711 479440 449
93887 342946 443
66312 284864 443
62663 94630 351
139078 961135 525
687538 956408 525
433516 511986 470
153782 929502 525
171400 464669 449
230712 797733 509
253638 519482 470
829393 876465 525
160897 162735 339
386559 477827 449
214421 332139 443
607121 738667 509
799024 846912 525
192964 334274 443
291125 895306 525
5458 5820 236
250365 263418 407
721641 871802 525
303809 323445 384
303499 570411 470
180108 758177 509
223319 898725 525
9731 732561 509
562401 643031 509
128503 325260 443
282973 346539 441
422643 424380 418
726354 729112 362
544284 696481 509
219021 376673 443
4911 5770 236
378331 860535 525
355281 933667 525
69016 345854 443
91711 476072 449
9041 13669 276
114488 719187 509
42444 688877 509
388715 670607 509
265855 421811 449
16139 25507 282
359162 370020 410
5278 269152 443
513300 629136 509
30230 42614 324
579 1745 182
381832 841406 525
228490 293373 443
159159 590910 470
145409 484543 449
775364 939346 525
4047 14874 276
23334 56283 340
721429 964676 525
497416 607828 470
310991 775624 509
674191 721215 504
509041 637022 509
252681 517197 470
586066 859707 525
2708 6753 262
117735 569006 470
57485 71378 335
214904 536240 470
153175 186244 383
2033 249657 443
68309 142054 354
296690 889757 525
526563 760855 509
91230 586197 470
47814 70114 340
547846 727927 509
286548 964367 525
10579 18774 279
7253 327500 443
172831 240977 443
572118 647434 509
31884 515921 470
254625 704155 509
269526 414153 449
532519 554621 452
249275 580028 470
185535 302180 443
409797 500257 449
84487 798571 509
298535 596445 470
307367 439221 449
562502 763197 509
266653 594372 470
98654 959208 525
76644 746075 509
49662 559996 470
540307 972173 525
50311 170717 383
218025 418014 449
878983 978677 507
179813 697286 509
188019 197702 360
216579 981544 525
231337 725162 509
